<svg xmlns="http://www.w3.org/2000/svg" xmlns:xlink="http://www.w3.org/1999/xlink" width="33.941" height="33.941" viewBox="0 0 33.941 33.941">
  <defs>
    <clipPath id="clip-path">
      <rect width="33.941" height="33.941" fill="none"/>
    </clipPath>
  </defs>
  <g id="Repeat_Grid_1" data-name="Repeat Grid 1" clip-path="url(#clip-path)">
    <g transform="translate(-376.029 -550.029)">
      <g id="arrow_forward_black_24dp_2_" data-name="arrow_forward_black_24dp (2)" transform="translate(376.029 567) rotate(-45)">
        <path id="Path_1" data-name="Path 1" d="M0,0H24V24H0Z" fill="none"/>
        <path id="Path_2" data-name="Path 2" d="M12,4,10.59,5.41,16.17,11H4v2H16.17l-5.58,5.59L12,20l8-8Z" fill="#fff"/>
      </g>
    </g>
  </g>
</svg>
